…
``` r
# what the data looks like after pre-processing
juice(voters_rec) 
```

    ## # A tibble: 5,964 x 105
    ##    rigged_system_1~ rigged_system_2~ rigged_system_3~ rigged_system_4~
    ##               <dbl>            <dbl>            <dbl>            <dbl>
    ##  1            0.299            1.76           -1.02             2.14  
    ##  2           -0.900            1.76           -1.02             2.14  
    ##  3           -2.10             1.76           -1.02             2.14  
    ##  4            0.299           -1.55            1.19            -1.02  
    ##  5            0.299            0.659           0.0844           0.0363
    ##  6            0.299            1.76           -1.02            -1.02  
    ##  7           -0.900            0.659           1.19             0.0363
    ##  8            1.50             1.76           -1.02             1.09  
    ##  9           -0.900            0.659          -1.02             0.0363
    ## 10            1.50             0.659          -1.02             1.09  
    ## # ... with 5,954 more rows, and 101 more variables: rigged_system_5_2016 <dbl>,
    ## #   rigged_system_6_2016 <dbl>, track_2016 <dbl>, persfinretro_2016 <dbl>,
    ## #   econtrend_2016 <dbl>, americatrend_2016 <dbl>, futuretrend_2016 <dbl>,
    ## #   wealth_2016 <dbl>, values_culture_2016 <dbl>, us_respect_2016 <dbl>,
    ## #   trustgovt_2016 <dbl>, trust_people_2016 <dbl>, helpful_people_2016 <dbl>,
    ## #   fair_people_2016 <dbl>, imiss_a_2016 <dbl>, imiss_b_2016 <dbl>,
    ## #   imiss_c_2016 <dbl>, imiss_d_2016 <dbl>, imiss_e_2016 <dbl>,
    ## #   imiss_f_2016 <dbl>, imiss_g_2016 <dbl>, imiss_h_2016 <dbl>,
    ## #   imiss_i_2016 <dbl>, imiss_j_2016 <dbl>, imiss_k_2016 <dbl>,
…
