…
A simple linear model is specified and fit, and the estimates of
coefficients are shown here:

``` r
lm_spec<- linear_reg(mode = "regression")%>%
  set_engine(engine = "lm")

lm_fit<-lm_spec %>%
  fit(weekly_attendance ~ ., data = nfl_train)

tidy(lm_fit) %>% arrange(-estimate)
```

    ## # A tibble: 37 x 5
    ##    term              estimate std.error statistic  p.value
    ##    <chr>                <dbl>     <dbl>     <dbl>    <dbl>
    ##  1 team_nameCowboys     6971.      754.     9.25  2.98e-20
    ##  2 team_nameRedskins    6917.      754.     9.17  5.81e-20
    ##  3 team_nameGiants      6222.      750.     8.29  1.30e-16
    ##  4 team_nameJets        4541.      756.     6.00  2.02e- 9
    ##  5 team_nameBroncos     2947.      762.     3.87  1.11e- 4
    ##  6 team_nameChiefs      2002.      756.     2.65  8.07e- 3
    ##  7 team_nameEagles      1730.      759.     2.28  2.27e- 2
    ##  8 team_namePanthers    1359.      755.     1.80  7.21e- 2
    ##  9 team_namePackers     1202.      767.     1.57  1.17e- 1
    ## 10 team_nameDolphins     512.      753.     0.680 4.97e- 1
    ## # ... with 27 more rows

A comparable random forest regression is specified and fit here:

``` r
rf_spec<- rand_forest(mode = "regression") %>%
  set_engine(engine = "ranger")

rf_fit<-rf_spec %>%
  fit(weekly_attendance ~ ., data = nfl_train)

tidy(lm_fit) %>% arrange(-estimate)
```

    ## # A tibble: 37 x 5
    ##    term              estimate std.error statistic  p.value
    ##    <chr>                <dbl>     <dbl>     <dbl>    <dbl>
    ##  1 team_nameCowboys     6971.      754.     9.25  2.98e-20
    ##  2 team_nameRedskins    6917.      754.     9.17  5.81e-20
    ##  3 team_nameGiants      6222.      750.     8.29  1.30e-16
    ##  4 team_nameJets        4541.      756.     6.00  2.02e- 9
    ##  5 team_nameBroncos     2947.      762.     3.87  1.11e- 4
    ##  6 team_nameChiefs      2002.      756.     2.65  8.07e- 3
    ##  7 team_nameEagles      1730.      759.     2.28  2.27e- 2
    ##  8 team_namePanthers    1359.      755.     1.80  7.21e- 2
    ##  9 team_namePackers     1202.      767.     1.57  1.17e- 1
    ## 10 team_nameDolphins     512.      753.     0.680 4.97e- 1
    ## # ... with 27 more rows
…
