…
A simple linear model is specified and fit, and the estimates of
coefficients are shown here:

``` r
lm_spec<- linear_reg(mode = "regression")%>%
  set_engine(engine = "lm")

lm_fit<-lm_spec %>%
  fit(weekly_attendance ~ ., data = nfl_train)

tidy(lm_fit) %>% arrange(-estimate)
```

    ## # A tibble: 37 x 5
    ##    term              estimate std.error statistic  p.value
    ##    <chr>                <dbl>     <dbl>     <dbl>    <dbl>
    ##  1 team_nameCowboys     7083.      756.      9.37 8.98e-21
    ##  2 team_nameGiants      6625.      764.      8.67 5.17e-18
    ##  3 team_nameRedskins    6580.      764.      8.61 8.81e-18
    ##  4 team_nameJets        4753.      772.      6.16 7.62e-10
    ##  5 team_nameBroncos     2857.      755.      3.78 1.56e- 4
    ##  6 team_nameChiefs      2171.      755.      2.87 4.05e- 3
    ##  7 team_namePanthers    1913.      773.      2.47 1.34e- 2
    ##  8 team_nameEagles      1664.      770.      2.16 3.08e- 2
    ##  9 team_namePackers     1509.      765.      1.97 4.86e- 2
    ## 10 team_nameSaints      1133.      771.      1.47 1.42e- 1
    ## # ... with 27 more rows

``` r
tidy(lm_fit) %>% arrange(-p.value) %>% filter(p.value < 0.05)
```

    ## # A tibble: 25 x 5
    ##    term              estimate std.error statistic  p.value
    ##    <chr>                <dbl>     <dbl>     <dbl>    <dbl>
    ##  1 team_namePackers    1509.      765.       1.97 0.0486  
    ##  2 team_nameEagles     1664.      770.       2.16 0.0308  
    ##  3 team_namePanthers   1913.      773.       2.47 0.0134  
    ##  4 team_nameChiefs     2171.      755.       2.87 0.00405 
    ##  5 team_nameBears     -2327.      767.      -3.03 0.00241 
    ##  6 team_nameVikings   -2363.      762.      -3.10 0.00193 
    ##  7 team_nameRams      -2372.      761.      -3.12 0.00183 
    ##  8 year                  55.5      16.5      3.36 0.000776
    ##  9 team_nameSteelers  -2610.      767.      -3.40 0.000672
    ## 10 week                 -65.7      19.0     -3.46 0.000549
    ## # ... with 15 more rows

A comparable random forest regression is specified and fit here:

``` r
rf_spec<- rand_forest(mode = "regression") %>%
  set_engine(engine = "ranger")

rf_fit<-rf_spec %>%
  fit(weekly_attendance ~ ., data = nfl_train)

tidy(lm_fit) %>% arrange(-estimate)
```

    ## # A tibble: 37 x 5
    ##    term              estimate std.error statistic  p.value
    ##    <chr>                <dbl>     <dbl>     <dbl>    <dbl>
    ##  1 team_nameCowboys     7083.      756.      9.37 8.98e-21
    ##  2 team_nameGiants      6625.      764.      8.67 5.17e-18
    ##  3 team_nameRedskins    6580.      764.      8.61 8.81e-18
    ##  4 team_nameJets        4753.      772.      6.16 7.62e-10
    ##  5 team_nameBroncos     2857.      755.      3.78 1.56e- 4
    ##  6 team_nameChiefs      2171.      755.      2.87 4.05e- 3
    ##  7 team_namePanthers    1913.      773.      2.47 1.34e- 2
    ##  8 team_nameEagles      1664.      770.      2.16 3.08e- 2
    ##  9 team_namePackers     1509.      765.      1.97 4.86e- 2
    ## 10 team_nameSaints      1133.      771.      1.47 1.42e- 1
    ## # ... with 27 more rows
…
