…
``` r
word_summary<-tweet_words %>%
  group_by(word)%>%
  summarize(n = n(),
            avg_retweets =   exp(mean(log(retweet_count + 1))) -1,
            avg_favorites = exp(mean(log(favorite_count+ 1)))-1) %>%
  filter(n >= 30) %>%
  arrange(desc(avg_retweets))

word_summary
```

    ## # A tibble: 128 x 4
    ##    word           n avg_retweets avg_favorites
    ##    <chr>      <int>        <dbl>         <dbl>
    ##  1 happy         49        10.6           39.3
    ##  2 afs           66         9.74          17.4
    ##  3 farming       51         9.42          29.1
    ##  4 command       33         9.14          15.2
    ##  5 steiger       65         8.82          25.7
    ##  6 efficiency    38         8.70          15.4
    ##  7 producers     32         8.02          18.5
    ##  8 set           41         7.36          16.3
    ##  9 fit           37         7.33          25.8
    ## 10 hard          41         7.29          25.4
    ## # ... with 118 more rows
…
``` r
library(tidytext)
top_word<-tweet_words %>%
  count(word, week) %>%
  bind_tf_idf(word, week, n) %>%
  filter(n>=2)%>%
  arrange(desc(tf_idf)) %>%
  distinct(week, .keep_all = TRUE)

week_summary %>%
  inner_join(top_word, by = c("week")) %>%
  arrange(desc(avg_retweets))
```

    ## # A tibble: 254 x 8
    ##    week       tweets avg_retweets word          n     tf   idf tf_idf
    ##    <date>      <int>        <dbl> <chr>     <int>  <dbl> <dbl>  <dbl>
    ##  1 2018-09-10      5         24.9 grow          2 0.0465  3.10 0.144 
    ##  2 2018-11-12      5         24.1 prepared      2 0.0426  4.89 0.208 
    ##  3 2018-08-20      5         22.2 financing     2 0.04    2.69 0.108 
    ##  4 2018-11-26      5         20.3 snow          3 0.0577  2.64 0.152 
    ##  5 2018-07-23      5         19.2 axialflow     2 0.0435  2.59 0.113 
    ##  6 2019-01-14      5         18.8 manage        2 0.0588  3.02 0.178 
    ##  7 2018-02-19      4         18.6 series        2 0.0571  1.01 0.0576
    ##  8 2018-10-01      5         18.3 grain         2 0.04    2.75 0.110 
    ##  9 2019-12-16      4         17.9 cost          2 0.0741  4.89 0.362 
    ## 10 2020-01-20      3         17.4 farmers       2 0.0833  1.95 0.162 
    ## # ... with 244 more rows
…
