…
``` r
lambda_grid <- grid_regular(penalty(), levels = 40)
```

Next, we need a set of resampled data to fit and evaluate all these
models.

``` r
review_folds <- bootstraps(review_train, strata = rating)
review_folds
```

    ## # Bootstrap sampling using stratification 
    ## # A tibble: 25 x 2
    ##    splits             id         
    ##    <named list>       <chr>      
    ##  1 <split [2.2K/841]> Bootstrap01
    ##  2 <split [2.2K/841]> Bootstrap02
    ##  3 <split [2.2K/848]> Bootstrap03
    ##  4 <split [2.2K/848]> Bootstrap04
    ##  5 <split [2.2K/817]> Bootstrap05
    ##  6 <split [2.2K/827]> Bootstrap06
    ##  7 <split [2.2K/846]> Bootstrap07
    ##  8 <split [2.2K/810]> Bootstrap08
    ##  9 <split [2.2K/797]> Bootstrap09
    ## 10 <split [2.2K/835]> Bootstrap10
    ## # ... with 15 more rows
…
Once we have our tuning results, we can examine them in detail.

``` r
lasso_grid %>%
  collect_metrics()
```

    ## # A tibble: 120 x 6
    ##     penalty .metric .estimator  mean     n std_err
    ##       <dbl> <chr>   <chr>      <dbl> <int>   <dbl>
    ##  1 1.00e-10 npv     binary     0.764    25 0.00396
    ##  2 1.00e-10 ppv     binary     0.868    25 0.00238
    ##  3 1.00e-10 roc_auc binary     0.888    25 0.00234
    ##  4 1.80e-10 npv     binary     0.764    25 0.00396
    ##  5 1.80e-10 ppv     binary     0.868    25 0.00238
    ##  6 1.80e-10 roc_auc binary     0.888    25 0.00234
    ##  7 3.26e-10 npv     binary     0.764    25 0.00396
    ##  8 3.26e-10 ppv     binary     0.868    25 0.00238
    ##  9 3.26e-10 roc_auc binary     0.888    25 0.00234
    ## 10 5.88e-10 npv     binary     0.764    25 0.00396
    ## # ... with 110 more rows
…
