…
``` r
NYT %>%
  group_by(state) %>%
  summarize(total_deaths = max(deaths)) %>%
  arrange(desc(total_deaths))
```

    ## # A tibble: 55 x 2
    ##    state       total_deaths
    ##    <chr>              <dbl>
    ##  1 New York             672
    ##  2 Washington           138
    ##  3 Louisiana             70
    ##  4 Michigan              46
    ##  5 New Jersey            35
    ##  6 California            33
    ##  7 Illinois              28
    ##  8 Georgia               23
    ##  9 Connecticut           20
    ## 10 Nevada                14
    ## # ... with 45 more rows
…
