…
    ## $astronauts
    ## # A tibble: 1,277 x 24
    ##       id number nationwide_numb~ name  original_name sex   year_of_birth
    ##    <dbl>  <dbl>            <dbl> <chr> <chr>         <chr>         <dbl>
    ##  1     1      1                1 Gaga~ <U+0413><U+0410><U+0413><U+0410><U+0420><U+0418><U+041D> <U+042E><U+0440><U+0438><U+0439>~ male           1934
    ##  2     2      2                2 Tito~ <U+0422><U+0418><U+0422><U+041E><U+0412> <U+0413><U+0435><U+0440><U+043C><U+0430><U+043D>~ male           1935
    ##  3     3      3                1 Glen~ Glenn, John ~ male           1921
    ##  4     4      3                1 Glen~ Glenn, John ~ male           1921
    ##  5     5      4                2 Carp~ Carpenter, M~ male           1925
    ##  6     6      5                2 Niko~ <U+041D><U+0418><U+041A><U+041E><U+041B><U+0410><U+0415><U+0412> <U+0410><U+043D><U+0434>~ male           1929
    ##  7     7      5                2 Niko~ <U+041D><U+0418><U+041A><U+041E><U+041B><U+0410><U+0415><U+0412> <U+0410><U+043D><U+0434>~ male           1929
    ##  8     8      6                4 Popo~ <U+041F><U+041E><U+041F><U+041E><U+0412><U+0418><U+0427> <U+041F><U+0430><U+0432><U+0435>~ male           1930
    ##  9     9      6                4 Popo~ <U+041F><U+041E><U+041F><U+041E><U+0412><U+0418><U+0427> <U+041F><U+0430><U+0432><U+0435>~ male           1930
    ## 10    10      7                3 Schi~ Schirra, Wal~ male           1923
    ## # ... with 1,267 more rows, and 17 more variables: nationality <chr>,
    ## #   military_civilian <chr>, selection <chr>, year_of_selection <dbl>,
    ## #   mission_number <dbl>, total_number_of_missions <dbl>, occupation <chr>,
    ## #   year_of_mission <dbl>, mission_title <chr>, ascend_shuttle <chr>,
    ## #   in_orbit <chr>, descend_shuttle <chr>, hours_mission <dbl>,
    ## #   total_hrs_sum <dbl>, field21 <dbl>, eva_hrs_mission <dbl>,
    ## #   total_eva_hrs <dbl>

``` r
astronauts<-tt$astronauts

astronauts %>%
  count(in_orbit, sort = TRUE)
```

    ## # A tibble: 289 x 2
    ##    in_orbit      n
    ##    <chr>     <int>
    ##  1 ISS         174
    ##  2 Mir          71
    ##  3 Salyut 6     24
    ##  4 Salyut 7     24
    ##  5 STS-42        8
    ##  6 explosion     7
    ##  7 STS-103       7
    ##  8 STS-107       7
    ##  9 STS-109       7
    ## 10 STS-110       7
    ## # ... with 279 more rows
…
Let’s evaluate how well these two models did by evaluating performance
on the test data.

``` r
test_rs <- astro_test %>%
  bind_cols(predict(tree_rs, astro_test)) %>%
  rename(.pred_tree = .pred) %>%
  bind_cols(predict(mars_rs, astro_test)) %>%
  rename(.pred_mars = .pred)

test_rs
```

    ## # A tibble: 316 x 9
    ##    name  mission_title hours_mission military_civili~ occupation year_of_mission
    ##    <chr> <chr>                 <dbl> <chr>            <chr>                <dbl>
    ##  1 Glen~ MA-6                   1.61 military         pilot                 1962
    ##  2 Niko~ Soyuz 9                6.05 military         pilot                 1970
    ##  3 Popo~ Soyuz 14               5.93 military         commander             1974
    ##  4 Schi~ Apollo 7               5.56 military         commander             1968
    ##  5 Coop~ Mercury-Atla~          3.54 military         pilot                 1963
    ##  6 Byko~ Soyuz 31/29            5.24 military         commander             1978
    ##  7 Koma~ Voskhod 1              3.19 military         commander             1964
    ##  8 Youn~ Gemini 3               1.58 military         pilot                 1965
    ##  9 Youn~ STS-1                  4.00 military         commander             1981
    ## 10 McDi~ Gemini 4               4.57 military         commander             1965
    ## # ... with 306 more rows, and 3 more variables: in_orbit <chr>,
    ## #   .pred_tree <dbl>, .pred_mars <dbl>
…
