…
``` r
# Who consumes beer on premises?

beer_states %>%
  filter(type == "On Premises", year == max(year), state != "total")%>%
  arrange(desc(barrels))
```

    ## # A tibble: 51 x 4
    ##    state  year barrels type       
    ##    <chr> <dbl>   <dbl> <chr>      
    ##  1 CA     2019 399693. On Premises
    ##  2 NC     2019 222609. On Premises
    ##  3 TX     2019 196218. On Premises
    ##  4 FL     2019 182784. On Premises
    ##  5 CO     2019 175934. On Premises
    ##  6 VA     2019 163801. On Premises
    ##  7 NY     2019 150617. On Premises
    ##  8 WA     2019 144278. On Premises
    ##  9 OH     2019 132030. On Premises
    ## 10 MI     2019 131485. On Premises
    ## # ... with 41 more rows

``` r
beer_states %>%
  filter( year == max(year), state != "total")%>%
  group_by(state) %>%
  mutate(percent = barrels / sum(barrels)) %>%
  filter(type == "On Premises") %>%
  arrange(desc(percent))
```

    ## # A tibble: 51 x 5
    ## # Groups:   state [51]
    ##    state  year barrels type        percent
    ##    <chr> <dbl>   <dbl> <chr>         <dbl>
    ##  1 ND     2019  10219. On Premises   0.982
    ##  2 OK     2019  21129. On Premises   0.925
    ##  3 SD     2019   9386. On Premises   0.722
    ##  4 WV     2019   8302. On Premises   0.673
    ##  5 AL     2019  47160. On Premises   0.659
    ##  6 SC     2019  53161. On Premises   0.625
    ##  7 IA     2019  61429. On Premises   0.560
    ##  8 MS     2019  11912. On Premises   0.555
    ##  9 DC     2019  16348. On Premises   0.547
    ## 10 AR     2019  16569. On Premises   0.542
    ## # ... with 41 more rows

``` r
beer_states %>%
  filter( year == max(year), state != "total")%>%
  group_by(state) %>%
  mutate(percent = barrels / sum(barrels)) %>%
  filter(type == "Bottles and Cans") %>%
  arrange(desc(percent))
```

    ## # A tibble: 51 x 5
    ## # Groups:   state [51]
    ##    state  year   barrels type             percent
    ##    <chr> <dbl>     <dbl> <chr>              <dbl>
    ##  1 TN     2019  2641268. Bottles and Cans   0.965
    ##  2 GA     2019 12855949. Bottles and Cans   0.959
    ##  3 MO     2019 11393002. Bottles and Cans   0.936
    ##  4 TX     2019 16934638. Bottles and Cans   0.931
    ##  5 NY     2019  7720585. Bottles and Cans   0.928
    ##  6 OH     2019 16176334. Bottles and Cans   0.915
    ##  7 CO     2019 17351292. Bottles and Cans   0.909
    ##  8 WI     2019  8353029. Bottles and Cans   0.905
    ##  9 VA     2019 12829544. Bottles and Cans   0.905
    ## 10 NH     2019  2276766. Bottles and Cans   0.877
    ## # ... with 41 more rows

``` r
beer_states %>%
  filter( year == max(year), state != "total")%>%
  group_by(state) %>%
  mutate(percent = barrels / sum(barrels)) %>%
  filter(type == "Kegs and Barrels") %>%
  arrange(desc(percent))
```

    ## # A tibble: 51 x 5
    ## # Groups:   state [51]
    ##    state  year barrels type             percent
    ##    <chr> <dbl>   <dbl> <chr>              <dbl>
    ##  1 ME     2019 101033. Kegs and Barrels   0.457
    ##  2 HI     2019  35112. Kegs and Barrels   0.428
    ##  3 WY     2019  18726. Kegs and Barrels   0.409
    ##  4 WA     2019 208290. Kegs and Barrels   0.385
    ##  5 ID     2019  14403. Kegs and Barrels   0.328
    ##  6 WV     2019   4017. Kegs and Barrels   0.326
    ##  7 NM     2019  37838. Kegs and Barrels   0.317
    ##  8 MA     2019 143222. Kegs and Barrels   0.316
    ##  9 AK     2019  55454. Kegs and Barrels   0.307
    ## 10 IN     2019  49086. Kegs and Barrels   0.295
    ## # ... with 41 more rows

``` r
states_percents_2019 <-beer_states %>%
  filter( year == max(year), state != "total")%>%
  group_by(state) %>%
  mutate(percent = barrels / sum(barrels)) %>%
  ungroup() 

states_percents_2019 %>%
  filter(type == "On Premises") %>%
  arrange(desc(percent))
```

    ## # A tibble: 51 x 5
    ##    state  year barrels type        percent
    ##    <chr> <dbl>   <dbl> <chr>         <dbl>
    ##  1 ND     2019  10219. On Premises   0.982
    ##  2 OK     2019  21129. On Premises   0.925
    ##  3 SD     2019   9386. On Premises   0.722
    ##  4 WV     2019   8302. On Premises   0.673
    ##  5 AL     2019  47160. On Premises   0.659
    ##  6 SC     2019  53161. On Premises   0.625
    ##  7 IA     2019  61429. On Premises   0.560
    ##  8 MS     2019  11912. On Premises   0.555
    ##  9 DC     2019  16348. On Premises   0.547
    ## 10 AR     2019  16569. On Premises   0.542
    ## # ... with 41 more rows
…
