…
    ## Parsed with column specification:
    ## cols(
    ##   season = col_double(),
    ##   episode = col_double(),
    ##   title = col_character(),
    ##   imdb_rating = col_double(),
    ##   total_votes = col_double(),
    ##   air_date = col_date(format = "")
    ## )

``` r
schrute::theoffice
```

    ## # A tibble: 55,130 x 12
    ##    index season episode episode_name director writer character text 
    ##    <int> <chr>  <chr>   <chr>        <chr>    <chr>  <chr>     <chr>
    ##  1     1 01     01      Pilot        Ken Kwa~ Ricky~ Michael   All ~
    ##  2     2 01     01      Pilot        Ken Kwa~ Ricky~ Jim       Oh, ~
    ##  3     3 01     01      Pilot        Ken Kwa~ Ricky~ Michael   So y~
    ##  4     4 01     01      Pilot        Ken Kwa~ Ricky~ Jim       Actu~
    ##  5     5 01     01      Pilot        Ken Kwa~ Ricky~ Michael   All ~
    ##  6     6 01     01      Pilot        Ken Kwa~ Ricky~ Michael   Yes,~
    ##  7     7 01     01      Pilot        Ken Kwa~ Ricky~ Michael   I've~
    ##  8     8 01     01      Pilot        Ken Kwa~ Ricky~ Pam       Well~
    ##  9     9 01     01      Pilot        Ken Kwa~ Ricky~ Michael   If y~
    ## 10    10 01     01      Pilot        Ken Kwa~ Ricky~ Pam       What?
    ## # ... with 55,120 more rows, and 4 more variables: text_w_direction <chr>,
    ## #   imdb_rating <dbl>, total_votes <int>, air_date <fct>
…
office_info <- schrute::theoffice %>%
  mutate(
    season = as.numeric(season),
    episode = as.numeric(episode),
    episode_name = str_to_lower(episode_name),
    episode_name = str_remove_all(episode_name, remove_regex),
    episode_name = str_trim(episode_name)
  ) %>%
  select(season, episode, episode_name, director, writer, character)

office_info
```

    ## # A tibble: 55,130 x 6
    ##    season episode episode_name director   writer                       character
    ##     <dbl>   <dbl> <chr>        <chr>      <chr>                        <chr>    
    ##  1      1       1 pilot        Ken Kwapis Ricky Gervais;Stephen Merch~ Michael  
    ##  2      1       1 pilot        Ken Kwapis Ricky Gervais;Stephen Merch~ Jim      
    ##  3      1       1 pilot        Ken Kwapis Ricky Gervais;Stephen Merch~ Michael  
    ##  4      1       1 pilot        Ken Kwapis Ricky Gervais;Stephen Merch~ Jim      
    ##  5      1       1 pilot        Ken Kwapis Ricky Gervais;Stephen Merch~ Michael  
    ##  6      1       1 pilot        Ken Kwapis Ricky Gervais;Stephen Merch~ Michael  
    ##  7      1       1 pilot        Ken Kwapis Ricky Gervais;Stephen Merch~ Michael  
    ##  8      1       1 pilot        Ken Kwapis Ricky Gervais;Stephen Merch~ Pam      
    ##  9      1       1 pilot        Ken Kwapis Ricky Gervais;Stephen Merch~ Michael  
    ## 10      1       1 pilot        Ken Kwapis Ricky Gervais;Stephen Merch~ Pam      
    ## # ... with 55,120 more rows
…
character_tf_idf<-transcript_words %>%
  add_count(word)%>%
  filter(n>20)%>%
  count(word, character) %>%
  bind_tf_idf(word, character, n) %>%
  arrange(desc(tf_idf))

character_tf_idf
```

    ## # A tibble: 17,686 x 6
    ##    word     character     n     tf   idf tf_idf
    ##    <chr>    <chr>     <int>  <dbl> <dbl>  <dbl>
    ##  1 pum      Angela       27 0.0110 2.71  0.0298
    ##  2 andrew   Robert       15 0.0147 1.79  0.0263
    ##  3 mike     Darryl       46 0.0218 1.00  0.0219
    ##  4 printers Jo            8 0.0162 1.32  0.0214
    ##  5 michael  Jan         159 0.115  0.182 0.0210
    ##  6 hank     Charles       4 0.0118 1.61  0.0190
    ##  7 michael  David        67 0.0914 0.182 0.0167
    ##  8 michael  Charles      28 0.0828 0.182 0.0151
    ##  9 halpert  Roy           7 0.0211 0.693 0.0147
    ## 10 woah     Charles       4 0.0118 1.20  0.0142
    ## # ... with 17,676 more rows
…
characters
```

    ## # A tibble: 185 x 16
    ##    episode_name  Andy Angela Darryl Dwight   Jim Kelly Kevin Michael Oscar   Pam
    ##    <chr>        <int>  <int>  <int>  <int> <int> <int> <int>   <int> <int> <int>
    ##  1 a benihana ~    28     37      3     61    44     5    14     108     1    57
    ##  2 aarm            44     39     30     87    89     0    30       0    28    34
    ##  3 after hours     20     11     14     60    55     8     4       0    10    15
    ##  4 alliance         0      7      0     47    49     0     3      68    14    22
    ##  5 angry y         53      7      5     16    19    13     9       0     7    29
    ##  6 baby shower     13     13      9     35    27     2     4      79     3    25
    ##  7 back from v~     3      4      6     22    25     0     5      70     0    33
    ##  8 banker           1      2      0     17     0     0     2      44     0     5
    ##  9 basketball       0      3     15     25    21     0     1     104     2    14
    ## 10 beach games     18      8      0     38    22     9     5     105     5    23
    ## # ... with 175 more rows, and 5 more variables: Phyllis <int>, Ryan <int>,
    ## #   Toby <int>, Erin <int>, Jan <int>
…
creators
```

    ## # A tibble: 90 x 7
    ##    episode_name `Greg Daniels` `B.J. Novak` `Paul Lieberste~ `Mindy Kaling`
    ##    <chr>                 <dbl>        <dbl>            <dbl>          <dbl>
    ##  1 pilot                     1            0                0              0
    ##  2 diversity d~              0            1                0              0
    ##  3 health care               0            0                1              0
    ##  4 basketball                1            0                0              0
    ##  5 hot girl                  0            0                0              1
    ##  6 dundies                   1            0                0              1
    ##  7 sexual hara~              0            1                0              0
    ##  8 fire                      0            1                0              0
    ##  9 halloween                 1            0                0              0
    ## 10 fight                     0            0                0              0
    ## # ... with 80 more rows, and 2 more variables: `Gene Stupnitsky` <dbl>, `Lee
    ## #   Eisenberg` <dbl>
…
    ## Joining, by = "episode_name"
    ## Joining, by = "episode_name"
    ## Joining, by = "episode_name"

``` r
office
```

    ## # A tibble: 94 x 25
    ##    season episode episode_name  andy angela darryl dwight   jim kelly kevin
    ##     <dbl>   <dbl> <chr>        <int>  <int>  <int>  <int> <int> <int> <int>
    ##  1      1       1 pilot            0      1      0     29    36     0     1
    ##  2      1       2 diversity d~     0      4      0     17    25     2     8
    ##  3      1       3 health care      0      5      0     62    42     0     6
    ##  4      1       5 basketball       0      3     15     25    21     0     1
    ##  5      1       6 hot girl         0      3      0     28    55     0     5
    ##  6      2       1 dundies          0      1      1     32    32     7     1
    ##  7      2       2 sexual hara~     0      2      9     11    16     0     6
    ##  8      2       4 fire             0     17      0     65    51     4     5
    ##  9      2       5 halloween        0     13      0     33    30     3     2
    ## 10      2       6 fight            0      3      0     64    49     3     3
    ## # ... with 84 more rows, and 15 more variables: michael <int>, oscar <int>,
    ## #   pam <int>, phyllis <int>, ryan <int>, toby <int>, erin <int>, jan <int>,
    ## #   greg_daniels <dbl>, b_j_novak <dbl>, paul_lieberstein <dbl>,
    ## #   mindy_kaling <dbl>, gene_stupnitsky <dbl>, lee_eisenberg <dbl>,
    ## #   imdb_rating <dbl>
…
wf <- workflow() %>%
  add_recipe(office_rec)

lasso_fit <- wf %>%
  add_model(lasso_spec) %>%
  fit(data = office_train)

lasso_fit %>%
  pull_workflow_fit() %>%
  tidy()
```

    ## # A tibble: 1,348 x 5
    ##    term         step estimate lambda dev.ratio
    ##    <chr>       <dbl>    <dbl>  <dbl>     <dbl>
    ##  1 (Intercept)     1  8.41     0.207    0     
    ##  2 (Intercept)     2  8.41     0.188    0.0342
    ##  3 jim             2  0.0185   0.188    0.0342
    ##  4 (Intercept)     3  8.41     0.172    0.0663
    ##  5 jim             3  0.0347   0.172    0.0663
    ##  6 michael         3  0.00295  0.172    0.0663
    ##  7 (Intercept)     4  8.41     0.156    0.105 
    ##  8 jim             4  0.0473   0.156    0.105 
    ##  9 michael         4  0.0155   0.156    0.105 
    ## 10 (Intercept)     5  8.41     0.142    0.137 
    ## # ... with 1,338 more rows
…
And the results?

``` r
lasso_grid %>%
  collect_metrics()
```

    ## # A tibble: 80 x 6
    ##     penalty .metric .estimator  mean     n std_err
    ##       <dbl> <chr>   <chr>      <dbl> <int>   <dbl>
    ##  1 1.00e-10 rmse    standard   0.520    25  0.0185
    ##  2 1.00e-10 rsq     standard   0.199    25  0.0277
    ##  3 1.80e-10 rmse    standard   0.520    25  0.0185
    ##  4 1.80e-10 rsq     standard   0.199    25  0.0277
    ##  5 3.26e-10 rmse    standard   0.520    25  0.0185
    ##  6 3.26e-10 rsq     standard   0.199    25  0.0277
    ##  7 5.88e-10 rmse    standard   0.520    25  0.0185
    ##  8 5.88e-10 rsq     standard   0.199    25  0.0277
    ##  9 1.06e- 9 rmse    standard   0.520    25  0.0185
    ## 10 1.06e- 9 rsq     standard   0.199    25  0.0277
    ## # ... with 70 more rows
…
