Tate Art Collection
…
Let’s focus on just a couple of variables for modeling, and at least focus on just the art created after 1750.

tate_df <- art %>%
  filter(year > 1750) %>%
  select(year, medium, width, height) %>%
  na.omit() %>%
  arrange(year)

What are the most common words used in describing the media?

tate_df %>%
  unnest_tokens(word, medium) %>%
  count(word, sort = TRUE)

# A tibble: 1,122 x 2
   word            n
   <chr>       <int>
 1 on          53651
 2 paper       48645
 3 graphite    29279
 4 and          9668
 5 watercolour  5216
 6 paint        4856
 7 oil          4318
 8 canvas       3622
 9 screenprint  3366
10 lithograph   2987
# ... with 1,112 more rows
…
There are clumps of artwork that are predicted well at the high and low end, but notice that prominent horizontal line of observations that are all predicted to be created at about ~1900. Let’s dig more into misclassifications.

misclassified <- collect_predictions(art_final) %>%
  bind_cols(art_test %>% select(medium)) %>%
  filter(abs(year - .pred) > 100)

misclassified %>%
  arrange(year)

# A tibble: 351 x 6
   id               .pred  .row  year .config              medium             
   <chr>            <dbl> <int> <dbl> <chr>                <chr>              
 1 train/test split 1887.     1  1751 Preprocessor1_Model1 Oil paint on canvas
 2 train/test split 1891.    12  1753 Preprocessor1_Model1 Oil paint on canvas
 3 train/test split 1887.    13  1753 Preprocessor1_Model1 Oil paint on canvas
 4 train/test split 1897.    15  1753 Preprocessor1_Model1 Oil paint on canvas
 5 train/test split 1897.    41  1759 Preprocessor1_Model1 Oil paint on canvas
 6 train/test split 1886.    45  1760 Preprocessor1_Model1 Oil paint on canvas
 7 train/test split 1891.    52  1760 Preprocessor1_Model1 Oil paint on canvas
 8 train/test split 1891.    55  1760 Preprocessor1_Model1 Oil paint on canvas
 9 train/test split 1889.    59  1760 Preprocessor1_Model1 Oil paint on canvas
10 train/test split 1944.    67  1761 Preprocessor1_Model1 Etching on paper   
# ... with 341 more rows

These are pieces of art that were created very early but predicted much later. In fact, notice that “Oil paint on canvas” also predicts to 1886 (with small influence of width and height features); that is about the mean or median of this whole dataset, that was one of the most common media, and this is how a linear model works!

misclassified %>%
  arrange(-year)

# A tibble: 351 x 6
   id              .pred  .row  year .config           medium                   
   <chr>           <dbl> <int> <dbl> <chr>             <chr>                    
 1 train/test spl~ 1867. 54974  2010 Preprocessor1_Mo~ Mezzotint on paper       
 2 train/test spl~ 1867. 54975  2010 Preprocessor1_Mo~ Mezzotint on paper       
 3 train/test spl~ 1871. 54979  2010 Preprocessor1_Mo~ Mezzotint on paper       
 4 train/test spl~ 1857. 54837  2008 Preprocessor1_Mo~ Etching and graphite on ~
 5 train/test spl~ 1837. 54880  2008 Preprocessor1_Mo~ Graphite on paper        
 6 train/test spl~ 1900. 54886  2008 Preprocessor1_Mo~ Oil paint on canvas      
 7 train/test spl~ 1833. 54801  2007 Preprocessor1_Mo~ Graphite on paper        
 8 train/test spl~ 1896. 54815  2007 Preprocessor1_Mo~ Oil paint on canvas      
 9 train/test spl~ 1896. 54816  2007 Preprocessor1_Mo~ Oil paint on canvas      
10 train/test spl~ 1835. 54542  2005 Preprocessor1_Mo~ Graphite on paper        
# ... with 341 more rows
…
