Animal Crossing Sentiment Analysis
…
Computational engine: glmnet 

Tune model parameters

Let’s get ready to tune the lasso model! First, we need a set of possible regularization parameters to try.

lambda_grid <- grid_regular(penalty(), levels = 40)

Next, we need a set of resampled data to fit and evaluate all these models.

review_folds <- bootstraps(review_train, strata = rating)
review_folds

# Bootstrap sampling using stratification 
# A tibble: 25 x 2
   splits             id         
   <list>             <chr>      
 1 <split [2.2K/807]> Bootstrap01
 2 <split [2.2K/831]> Bootstrap02
 3 <split [2.2K/825]> Bootstrap03
 4 <split [2.2K/840]> Bootstrap04
 5 <split [2.2K/842]> Bootstrap05
 6 <split [2.2K/827]> Bootstrap06
 7 <split [2.2K/846]> Bootstrap07
 8 <split [2.2K/829]> Bootstrap08
 9 <split [2.2K/800]> Bootstrap09
10 <split [2.2K/847]> Bootstrap10
# ... with 15 more rows
Now we can put it all together and implement the tuning. We can set specific metrics to compute during tuning with metric_set(). Let’s look at AUC, positive predictive value, and negative predictive value so we can understand if one class is harder to predict than another.

lasso_grid <- tune::tune_grid(
  lasso_wf,
  resamples = review_folds,
  grid = lambda_grid,
  metrics = yardstick::metric_set(yardstick::roc_auc, yardstick::ppv, yardstick::npv)
)

Once we have our tuning results, we can examine them in detail.

lasso_grid %>%
  collect_metrics()

# A tibble: 120 x 7
    penalty .metric .estimator  mean     n std_err .config
      <dbl> <chr>   <chr>      <dbl> <int>   <dbl> <chr>  
 1 1.00e-10 npv     binary     0.748    25 0.00484 Model01
 2 1.00e-10 ppv     binary     0.861    25 0.00233 Model01
 3 1.00e-10 roc_auc binary     0.882    25 0.00195 Model01
 4 1.80e-10 npv     binary     0.748    25 0.00484 Model02
 5 1.80e-10 ppv     binary     0.861    25 0.00233 Model02
 6 1.80e-10 roc_auc binary     0.882    25 0.00195 Model02
 7 3.26e-10 npv     binary     0.748    25 0.00484 Model03
 8 3.26e-10 ppv     binary     0.861    25 0.00233 Model03
 9 3.26e-10 roc_auc binary     0.882    25 0.00195 Model03
10 5.88e-10 npv     binary     0.748    25 0.00484 Model04
# ... with 110 more rows
…
