Canadian Wind Turbines
…
Load the weekly Data

Download the weekly data and make available in the tt object.

tt <- tt_load("2020-10-27")

    Downloading file 1 of 1: `wind-turbine.csv`

Glimpse the Data

Let’s take an initial look at the format of the data available. There is a single table this week. Some records appear to be missing.

tt$`wind-turbine`

# A tibble: 6,698 x 15
   objectid province_territ~ project_name total_project_c~ turbine_identif~
      <dbl> <chr>            <chr>                   <dbl> <chr>           
 1        1 Alberta          Optimist Wi~             0.9  OWE1            
 2        2 Alberta          Castle Rive~            44    CRW1            
 3        3 Alberta          Waterton Wi~             3.78 WWT1            
 4        4 Alberta          Waterton Wi~             3.78 WWT2            
 5        5 Alberta          Waterton Wi~             3.78 WWT3            
 6        6 Alberta          Waterton Wi~             3.78 WWT4            
 7        7 Alberta          Cowley North            19.5  CON1            
 8        8 Alberta          Cowley North            19.5  CON2            
 9        9 Alberta          Cowley North            19.5  CON3            
10       10 Alberta          Cowley North            19.5  CON4            
# ... with 6,688 more rows, and 10 more variables:
#   turbine_number_in_project <chr>, turbine_rated_capacity_k_w <dbl>,
#   rotor_diameter_m <dbl>, hub_height_m <dbl>, manufacturer <chr>,
#   model <chr>, commissioning_date <chr>, latitude <dbl>, longitude <dbl>,
#   notes <chr>
…
