College Tuition and Diversity
…
Training data contained 480 data points and 11 incomplete rows. 

Operations:

Correlation filter removed in_state_total, ... [trained]
Dummy variables from type, degree_length, region [trained]
Zero variance filter removed no terms [trained]
Centering and scaling for total_enrollment, ... [trained]

# What the data looks like after pre-processing (similar to bake)
juice(uni_rec)

# A tibble: 480 x 10
   total_enrollment in_state_tuition make_world_bett~ stem_percent diversity
              <dbl>            <dbl>            <dbl>        <dbl> <fct>    
 1             5.84           -1.25            -0.383      -0.0522 low      
 2             4.62           -1.24            -0.271      -0.0522 low      
 3             4.61           -1.25            -0.159       0.749  low      
 4             4.59            1.52            -1.28        0.0710 low      
 5             4.13           -0.718           -1.06        1.18   low      
 6             3.93            0.259           -0.495      -0.545  high     
 7             3.84            1.79            -0.719       0.379  low      
 8             3.82           -0.877           -0.271       0.379  low      
 9             3.71           -1.24            -0.495       0.0710 low      
10             3.67           -0.876           -0.383       0.441  low      
# ... with 470 more rows, and 5 more variables: type_Public <dbl>,
#   degree_length_X4.Year <dbl>, region_South <dbl>,
#   region_North.Central <dbl>, region_West <dbl>
…
