Crop Yields
…
$arable_land_pin
# A tibble: 11,280 x 4
   Entity     Code   Year `Arable land needed to produce a fixed quantity of cr~
   <chr>      <chr> <dbl>                                                  <dbl>
 1 Afghanist~ AFG    1961                                                  1    
 2 Afghanist~ AFG    1962                                                  0.984
 3 Afghanist~ AFG    1963                                                  1.01 
 4 Afghanist~ AFG    1964                                                  0.939
 5 Afghanist~ AFG    1965                                                  0.907
 6 Afghanist~ AFG    1966                                                  0.927
 7 Afghanist~ AFG    1967                                                  0.832
 8 Afghanist~ AFG    1968                                                  0.812
 9 Afghanist~ AFG    1969                                                  0.792
10 Afghanist~ AFG    1970                                                  0.876
# ... with 11,270 more rows

$cereal_crop_yield_vs_fertilizer_application
# A tibble: 11,965 x 5
   Entity    Code   Year `Cereal yield (tonnes p~ `Nitrogen fertilizer use (kil~
   <chr>     <chr> <dbl>                    <dbl>                          <dbl>
 1 Afghanis~ AFG    1961                    1.12                              NA
 2 Afghanis~ AFG    1962                    1.08                              NA
 3 Afghanis~ AFG    1963                    0.986                             NA
 4 Afghanis~ AFG    1964                    1.08                              NA
 5 Afghanis~ AFG    1965                    1.10                              NA
 6 Afghanis~ AFG    1966                    1.01                              NA
 7 Afghanis~ AFG    1967                    1.22                              NA
 8 Afghanis~ AFG    1968                    1.29                              NA
 9 Afghanis~ AFG    1969                    1.31                              NA
10 Afghanis~ AFG    1970                    1.11                              NA
# ... with 11,955 more rows

$cereal_yields_vs_tractor_inputs_in_agriculture
# A tibble: 49,403 x 6
   Entity  Code  Year  `Tractors per 100~ `Cereal yield (kilo~ `Total populatio~
   <chr>   <chr> <chr>              <dbl>                <dbl>             <dbl>
 1 Afghan~ AFG   1961               0.157                1115.           9169000
 2 Afghan~ AFG   1962               0.195                1079            9351000
 3 Afghan~ AFG   1963               0.258                 986.           9543000
 4 Afghan~ AFG   1964               0.256                1083.           9745000
 5 Afghan~ AFG   1965               0.385                1099.           9956000
 6 Afghan~ AFG   1966               0.511                1012.          10175000
 7 Afghan~ AFG   1967               0.637                1224.          10400000
 8 Afghan~ AFG   1968               0.637                1288.          10637000
 9 Afghan~ AFG   1969               0.700                1310.          10894000
10 Afghan~ AFG   1970               0.699                1105.          11174000
# ... with 49,393 more rows

$key_crop_yields
# A tibble: 13,075 x 14
   Entity Code   Year `Wheat (tonnes ~ `Rice (tonnes p~ `Maize (tonnes ~
   <chr>  <chr> <dbl>            <dbl>            <dbl>            <dbl>
 1 Afgha~ AFG    1961            1.02              1.52             1.4 
 2 Afgha~ AFG    1962            0.974             1.52             1.4 
 3 Afgha~ AFG    1963            0.832             1.52             1.43
 4 Afgha~ AFG    1964            0.951             1.73             1.43
 5 Afgha~ AFG    1965            0.972             1.73             1.44
 6 Afgha~ AFG    1966            0.867             1.52             1.44
 7 Afgha~ AFG    1967            1.12              1.92             1.41
 8 Afgha~ AFG    1968            1.16              1.95             1.71
 9 Afgha~ AFG    1969            1.19              1.98             1.72
10 Afgha~ AFG    1970            0.956             1.81             1.48
# ... with 13,065 more rows, and 8 more variables: `Soybeans (tonnes per
#   hectare)` <dbl>, `Potatoes (tonnes per hectare)` <dbl>, `Beans (tonnes per
#   hectare)` <dbl>, `Peas (tonnes per hectare)` <dbl>, `Cassava (tonnes per
#   hectare)` <dbl>, `Barley (tonnes per hectare)` <dbl>, `Cocoa beans (tonnes
#   per hectare)` <dbl>, `Bananas (tonnes per hectare)` <dbl>

$land_use_vs_yield_change_in_cereal_production
# A tibble: 49,259 x 6
   Entity  Code  Year  `Cereal yield in~ `Change to land area~ `Total populatio~
   <chr>   <chr> <chr>             <dbl>                 <dbl>             <dbl>
 1 Afghan~ AFG   1961                100                   100           9169000
 2 Afghan~ AFG   1962                 97                   103           9351000
 3 Afghan~ AFG   1963                 88                   103           9543000
 4 Afghan~ AFG   1964                 97                   104           9745000
 5 Afghan~ AFG   1965                 99                   104           9956000
 6 Afghan~ AFG   1966                 91                   104          10175000
 7 Afghan~ AFG   1967                110                    94          10400000
 8 Afghan~ AFG   1968                115                    92          10637000
 9 Afghan~ AFG   1969                118                    93          10894000
10 Afghan~ AFG   1970                 99                    96          11174000
# ... with 49,249 more rows
…
