Friends
…
$friends
# A tibble: 67,373 x 6
   text                                speaker    season episode scene utterance
   <chr>                               <chr>       <dbl>   <dbl> <dbl>     <dbl>
 1 There's nothing to tell! He's just~ Monica Ge~      1       1     1         1
 2 C'mon, you're going out with the g~ Joey Trib~      1       1     1         2
 3 All right Joey, be nice. So does h~ Chandler ~      1       1     1         3
 4 Wait, does he eat chalk?            Phoebe Bu~      1       1     1         4
 5 (They all stare, bemused.)          Scene Dir~      1       1     1         5
 6 Just, 'cause, I don't want her to ~ Phoebe Bu~      1       1     1         6
 7 Okay, everybody relax. This is not~ Monica Ge~      1       1     1         7
 8 Sounds like a date to me.           Chandler ~      1       1     1         8
 9 [Time Lapse]                        Scene Dir~      1       1     1         9
10 Alright, so I'm back in high schoo~ Chandler ~      1       1     1        10
# ... with 67,363 more rows

$friends_info
# A tibble: 236 x 8
   season episode title directed_by written_by air_date   us_views_millio~
    <dbl>   <dbl> <chr> <chr>       <chr>      <date>                <dbl>
 1      1       1 The ~ James Burr~ David Cra~ 1994-09-22             21.5
 2      1       2 The ~ James Burr~ David Cra~ 1994-09-29             20.2
 3      1       3 The ~ James Burr~ Jeffrey A~ 1994-10-06             19.5
 4      1       4 The ~ James Burr~ Alexa Jun~ 1994-10-13             19.7
 5      1       5 The ~ Pamela Fry~ Jeff Gree~ 1994-10-20             18.6
 6      1       6 The ~ Arlene San~ Adam Chas~ 1994-10-27             18.2
 7      1       7 The ~ James Burr~ Jeffrey A~ 1994-11-03             23.5
 8      1       8 The ~ James Burr~ Marta Kau~ 1994-11-10             21.1
 9      1       9 The ~ James Burr~ Jeff Gree~ 1994-11-17             23.1
10      1      10 The ~ Peter Bone~ Adam Chas~ 1994-12-15             19.9
# ... with 226 more rows, and 1 more variable: imdb_rating <dbl>

$friends_emotions
# A tibble: 12,606 x 5
   season episode scene utterance emotion
    <dbl>   <dbl> <dbl>     <dbl> <chr>  
 1      1       1     4         1 Mad    
 2      1       1     4         3 Neutral
 3      1       1     4         4 Joyful 
 4      1       1     4         5 Neutral
 5      1       1     4         6 Neutral
 6      1       1     4         7 Neutral
 7      1       1     4         8 Scared 
 8      1       1     4        10 Joyful 
 9      1       1     4        11 Joyful 
10      1       1     4        12 Sad    
# ... with 12,596 more rows
…
words_unnested <- friends.text %>%
   left_join(emotion, by = c("season", "episode", "utterance")) %>% 
   select(text, speaker, season, episode_title, emotion) %>% 
   unnest_tokens(word, text) %>% 
   anti_join(stop_words, by = "word") %>% 
   filter(!word %in% c("yeah","hey","gonna","uh", "y'know", "um", "ah", "um", "la", "wh")) %>% 
   filter(!str_detect(word, "[:digit:]|^aa"),
          !is.na(emotion), emotion != "Neutral" )

words_unnested %>% 
  count(word, sort = TRUE)

# A tibble: 9,023 x 2
   word         n
   <chr>    <int>
 1 ross      3461
 2 god       2872
 3 joey      2380
 4 time      2090
 5 guys      2077
 6 rachel    2048
 7 monica    2032
 8 chandler  2009
 9 guy       1782
10 phoebe    1589
# ... with 9,013 more rows
…
