TheLastAirbender
…
This week’s #TidyTuesday dataset is from episodes of Avatar: The Last Airbender. Our modeling goal is to predict the speaker of each line of dialogue.

library(tidyverse)

avatar <- tidytuesdayR::tt_load("2020-08-11")

    Downloading file 1 of 2: `avatar.csv`
    Downloading file 2 of 2: `scene_description.csv`

avatar_raw <- avatar$avatar

avatar_raw %>%
  count(character, sort = TRUE)

# A tibble: 374 x 2
   character             n
   <chr>             <int>
 1 Scene Description  3393
 2 Aang               1796
 3 Sokka              1639
 4 Katara             1437
 5 Zuko                776
 6 Toph                507
 7 Iroh                337
 8 Azula               211
 9 Jet                 134
10 Suki                114
# ... with 364 more rows
…
Training data contained 7494 data points and no missing data.

Operations:

Down-sampling based on aang [trained]
Text feature extraction for text [trained]
Zero variance filter removed 15 items [trained]
Centering and scaling for 12 items [trained]

juice(avatar_prep)

# A tibble: 2,694 x 13
   aang  textfeature_tex~ textfeature_tex~ textfeature_tex~
   <fct>            <dbl>            <dbl>            <dbl>
 1 Aang            -0.382           -0.375         -0.492  
 2 Aang            -0.676           -0.724         -0.608  
 3 Aang            -0.382           -0.375         -0.353  
 4 Aang            -0.676           -0.724         -0.655  
 5 Aang            -0.676           -0.724         -0.747  
 6 Aang            -0.284           -0.259         -0.307  
 7 Aang            -0.676           -0.724         -0.678  
 8 Aang             0.108            0.206          0.0879 
 9 Aang            -0.872           -0.957         -0.910  
10 Aang            -0.186           -0.143         -0.00491
# ... with 2,684 more rows, and 9 more variables:
#   textfeature_text_n_uq_charS <dbl>,
#   textfeature_text_n_commas <dbl>,
#   textfeature_text_n_periods <dbl>,
#   textfeature_text_n_exclaims <dbl>,
#   textfeature_text_n_extraspaces <dbl>,
#   textfeature_text_n_caps <dbl>, textfeature_text_n_lowers <dbl>,
#   textfeature_text_n_nonasciis <dbl>,
#   textfeature_text_n_puncts <dbl>
…
