NCAA Womens Tournament
…
tourney_train <- training(tourney_split)
tourney_test <- testing(tourney_split)

We are going to use resampling to evaluate model performance. A bootstrap sample is a sample that is the same size as the original data set that is made using replacement. This results in analysis samples that have multiple replicates of some of the original rows of the data.

set.seed(234)
tourney_folds <- bootstraps(tourney_train)
tourney_folds

# Bootstrap sampling 
# A tibble: 25 x 2
   splits             id         
   <list>             <chr>      
 1 <split [1.6K/545]> Bootstrap01
 2 <split [1.6K/587]> Bootstrap02
 3 <split [1.6K/597]> Bootstrap03
 4 <split [1.6K/581]> Bootstrap04
 5 <split [1.6K/581]> Bootstrap05
 6 <split [1.6K/597]> Bootstrap06
 7 <split [1.6K/570]> Bootstrap07
 8 <split [1.6K/572]> Bootstrap08
 9 <split [1.6K/598]> Bootstrap09
10 <split [1.6K/576]> Bootstrap10
# ... with 15 more rows
…
spline_rs <-
  tune_grid(
    tourney_wf,
    resamples = tourney_folds,
    grid = spline_grid,
    control = save_preds
  )

spline_rs

# Tuning results
# Bootstrap sampling 
# A tibble: 25 x 5
   splits           id         .metrics        .notes         .predictions      
   <list>           <chr>      <list>          <list>         <list>            
 1 <split [1.6K/54~ Bootstrap~ <tibble [14 x ~ <tibble [0 x ~ <tibble [3,815 x ~
 2 <split [1.6K/58~ Bootstrap~ <tibble [14 x ~ <tibble [0 x ~ <tibble [4,109 x ~
 3 <split [1.6K/59~ Bootstrap~ <tibble [14 x ~ <tibble [0 x ~ <tibble [4,179 x ~
 4 <split [1.6K/58~ Bootstrap~ <tibble [14 x ~ <tibble [0 x ~ <tibble [4,067 x ~
 5 <split [1.6K/58~ Bootstrap~ <tibble [14 x ~ <tibble [0 x ~ <tibble [4,067 x ~
 6 <split [1.6K/59~ Bootstrap~ <tibble [14 x ~ <tibble [0 x ~ <tibble [4,179 x ~
 7 <split [1.6K/57~ Bootstrap~ <tibble [14 x ~ <tibble [0 x ~ <tibble [3,990 x ~
 8 <split [1.6K/57~ Bootstrap~ <tibble [14 x ~ <tibble [0 x ~ <tibble [4,004 x ~
 9 <split [1.6K/59~ Bootstrap~ <tibble [14 x ~ <tibble [0 x ~ <tibble [4,186 x ~
10 <split [1.6K/57~ Bootstrap~ <tibble [14 x ~ <tibble [0 x ~ <tibble [4,032 x ~
# ... with 15 more rows
…
