NFL attendance
…
nfl_train <-training(attendance_split)
nfl_test <- testing(attendance_split)

A simple linear model is specified and fit, and the estimates of coefficients are shown here:

lm_spec<- linear_reg(mode = "regression")%>%
  set_engine(engine = "lm")

lm_fit<-lm_spec %>%
  fit(weekly_attendance ~ ., data = nfl_train)

tidy(lm_fit) %>% arrange(-estimate)

# A tibble: 37 x 5
   term              estimate std.error statistic  p.value
   <chr>                <dbl>     <dbl>     <dbl>    <dbl>
 1 team_nameRedskins    7142.      759.      9.41 6.23e-21
 2 team_nameCowboys     6939.      756.      9.18 5.57e-20
 3 team_nameGiants      6709.      763.      8.80 1.74e-18
 4 team_nameJets        4956.      776.      6.38 1.82e-10
 5 team_nameBroncos     3441.      754.      4.56 5.11e- 6
 6 team_nameChiefs      2614.      759.      3.44 5.74e- 4
 7 team_nameEagles      1941.      763.      2.55 1.09e- 2
 8 team_namePanthers    1700.      768.      2.21 2.70e- 2
 9 team_namePackers     1674.      766.      2.19 2.89e- 2
10 team_nameSaints       992.      769.      1.29 1.97e- 1
# ... with 27 more rows

tidy(lm_fit) %>% arrange(-p.value) %>% filter(p.value < 0.05)

# A tibble: 26 x 5
   term              estimate std.error statistic  p.value
   <chr>                <dbl>     <dbl>     <dbl>    <dbl>
 1 team_namePackers    1674.      766.       2.19 0.0289  
 2 team_namePanthers   1700.      768.       2.21 0.0270  
 3 (Intercept)       -74257.    33474.      -2.22 0.0266  
 4 team_nameEagles     1941.      763.       2.55 0.0109  
 5 team_nameRams      -1983.      763.      -2.60 0.00938 
 6 team_nameVikings   -2201.      759.      -2.90 0.00375 
 7 team_nameBears     -2317.      755.      -3.07 0.00216 
 8 team_nameLions     -2513.      771.      -3.26 0.00112 
 9 week                 -64.1      19.2     -3.33 0.000863
10 team_nameChiefs     2614.      759.       3.44 0.000574
# ... with 16 more rows

A comparable random forest regression is specified and fit here:

rf_spec<- rand_forest(mode = "regression") %>%
  set_engine(engine = "ranger")

rf_fit<-rf_spec %>%
  fit(weekly_attendance ~ ., data = nfl_train)

tidy(lm_fit) %>% arrange(-estimate)

# A tibble: 37 x 5
   term              estimate std.error statistic  p.value
   <chr>                <dbl>     <dbl>     <dbl>    <dbl>
 1 team_nameRedskins    7142.      759.      9.41 6.23e-21
 2 team_nameCowboys     6939.      756.      9.18 5.57e-20
 3 team_nameGiants      6709.      763.      8.80 1.74e-18
 4 team_nameJets        4956.      776.      6.38 1.82e-10
 5 team_nameBroncos     3441.      754.      4.56 5.11e- 6
 6 team_nameChiefs      2614.      759.      3.44 5.74e- 4
 7 team_nameEagles      1941.      763.      2.55 1.09e- 2
 8 team_namePanthers    1700.      768.      2.21 2.70e- 2
 9 team_namePackers     1674.      766.      2.19 2.89e- 2
10 team_nameSaints       992.      769.      1.29 1.97e- 1
# ... with 27 more rows
…
