Washington State Trails
…
hikes_complete

# A tibble: 240 x 4
   length features                  n length_total
    <dbl> <chr>                 <dbl>        <dbl>
 1   -0.8 Coast                     3          104
 2   -0.8 Dogs allowed on leash    18          104
 3   -0.8 Dogs not allowed          3          104
 4   -0.8 Established campsites     0          104
 5   -0.8 Fall foliage              8          104
 6   -0.8 Good for kids            29          104
 7   -0.8 Lakes                     4          104
 8   -0.8 Mountain views            7          104
 9   -0.8 Old growth                4          104
10   -0.8 Ridges/passes             2          104
# ... with 230 more rows
…
