…
stages_joined %>%
  group_by(winner_country) %>%
  summarize(stages = n(), median_percentile = median(percentile, na.rm = TRUE)) %>%
  arrange(desc(stages))
```

    ## # A tibble: 41 x 3
    ##    winner_country stages median_percentile
    ##    <chr>           <int>             <dbl>
    ##  1 FRA             63231             0.495
    ##  2 BEL             45020             0.495
    ##  3 ITA             28970             0.496
    ##  4 NED             20185             0.496
    ##  5 ESP             17210             0.5  
    ##  6 GER             11659             0.497
    ##  7 GBR             10858             0.5  
    ##  8 SUI              6632             0.497
    ##  9 LUX              6100             0.5  
    ## 10 USA              6063             0.497
    ## # ... with 31 more rows
…
